A	3	1	1					Liam		Alice
								(3 SONS AND 1 DAUGHTER)		
A	3	1	1	1			SON	Albert		Dana
A	3	1	1	2			SON	Scott		Michelle
A	3	1	1	3			DAUGHTER	Sarah		Martin
A	3	1	1	4			SON	Noah		Wilma
										
										
										
A	3	1	1	1				Albert		Dana
								ONE SON		
A	3	1	1	1	1		SON	Ross 		
										
										
A	3	1	1	2				Scott		Michelle
								ONE SON		
A	3	1	1	2	1		SON	Harvey Dent		
										
										
A	3	1	1	3				Sarah		Martin
								ONE DAUGHTER		
A	3	1	1	3	1		DAUGHTER	Alina		Mark
										
										
A	3	1	1	4				Noah		Wilma
								ONE SON		
A	3	1	1	4	1		SON	William		
